ETC5523: Communicating with Data
…
]
.item50[

```r
broom::augment(fit)
```

```
## # A tibble: 32 x 9
##    .rownames          mpg    wt .fitted .resid .std.resid   .hat .sigma  .cooksd
##    <chr>            <dbl> <dbl>   <dbl>  <dbl>      <dbl>  <dbl>  <dbl>    <dbl>
##  1 Mazda RX4         21    2.62    23.3 -2.28     -0.766  0.0433   3.07  1.33e-2
##  2 Mazda RX4 Wag     21    2.88    21.9 -0.920    -0.307  0.0352   3.09  1.72e-3
##  3 Datsun 710        22.8  2.32    24.9 -2.09     -0.706  0.0584   3.07  1.54e-2
##  4 Hornet 4 Drive    21.4  3.22    20.1  1.30      0.433  0.0313   3.09  3.02e-3
##  5 Hornet Sportabo…  18.7  3.44    18.9 -0.200    -0.0668 0.0329   3.10  7.60e-5
##  6 Valiant           18.1  3.46    18.8 -0.693    -0.231  0.0332   3.10  9.21e-4
##  7 Duster 360        14.3  3.57    18.2 -3.91     -1.31   0.0354   3.01  3.13e-2
##  8 Merc 240D         24.4  3.19    20.2  4.16      1.39   0.0313   3.00  3.11e-2
##  9 Merc 230          22.8  3.15    20.5  2.35      0.784  0.0314   3.07  9.96e-3
## 10 Merc 280          19.2  3.44    18.9  0.300     0.100  0.0329   3.10  1.71e-4
## # … with 22 more rows
```
…
